{
    "chapters": [],
    "sections": [
        {
            "id": "examples--commerce",
            "title": "Code Examples: Commerce",
            "file": "examples--commerce.md",
            "sort": 0
        },
        {
            "id": "examples--taxonomy",
            "title": "Code Examples: Taxonomy",
            "file": "examples--taxonomy.md",
            "sort": 1
        },
        {
            "id": "phpunit",
            "title": "Testing with PhpUnit",
            "file": "phpunit.md",
            "sort": 2
        }
    ],
    "settings": {
        "search": "tipuesearch"
    }
}